{
	"env_name": "Boxing",

	"save_dir": "save_folder/",
	"stats_log_hz": 2.5e5,
	"checkpoint_hz": 1e6,
	"test_hz": 1e6,
	"seed": 0,

	"ep_start": 1.0,
	"ep_end": 0.1,
	"t_ep_end": 1e6,
	"test_ep": 0.05,

	"observation_dims": [84, 84],
	"history_length": 4,
	"experience_length": 2e5,

	"filter_nums": [32, 64, 64],
	"filter_shapes": [[8, 8], [4, 4], [3, 3]],
	"filter_strides": [[4, 4], [2, 2], [1, 1]],
	"layer_order": [0, 0, 0],
	"hid_nums": [512],

	"t_train_max": 2e7,
	"t_learn_start": 5e4,
	"update_hz": 4,
	"update_target_hz": 5e3,

	"batch_size": 32,
	"discount_r": 0.99,
	"learning_rate": 0.00025,
	"momentum": 0.0,
	"decay": 0.99,
	"epsilon": 1e-6,

	"train": true,
	"mode": "reh",
	"display": false,
	"restore": false,

	"prev_env_name": ["RoadRunner"],
	"load_dir": null,
	"partial_load": false,
	"no_load": false,
	"prev_load_dir": [],
	"new_load_dir": null,
	"loss_scale": 0.55,
	"n_reh_ims": 2.5e5,
	"wm": true,
	"policy_only": false,
	"dual_head": false,
	"dual_scale": 0.8,
	"net_type": "DQN",
	"policy_B": 0.5,
	"entropy_B_start": 0.01,
	"entropy_B_end": 0.001,
	"entropy_B_t_end": 8e6,

	"normQ": false,
	"teach_gen_filename": null
}
